…
``` r
mta_cleanr
```

    ## # A tibble: 910,221 x 9
    ##    date_time           STATION LINENAME SCP   ENTRIES new_entries new_exits
    ##    <dttm>              <chr>   <chr>    <chr>   <dbl>       <dbl>     <dbl>
    ##  1 2020-03-27 04:00:00 59 ST   NQR456W  '02-… 7412671           9        21
    ##  2 2020-03-27 08:00:00 59 ST   NQR456W  '02-… 7412680          19        24
    ##  3 2020-03-27 12:00:00 59 ST   NQR456W  '02-… 7412699          49        10
    ##  4 2020-03-27 16:00:00 59 ST   NQR456W  '02-… 7412748          59         9
    ##  5 2020-03-27 00:00:00 59 ST   NQR456W  '02-… 6588992           1         2
    ##  6 2020-03-27 04:00:00 59 ST   NQR456W  '02-… 6588993           4        16
    ##  7 2020-03-27 08:00:00 59 ST   NQR456W  '02-… 6588997           7         8
    ##  8 2020-03-27 12:00:00 59 ST   NQR456W  '02-… 6589004          46         8
    ##  9 2020-03-27 16:00:00 59 ST   NQR456W  '02-… 6589050          46         2
    ## 10 2020-03-27 00:00:00 59 ST   NQR456W  '02-… 1376224           0         1
    ## # … with 910,211 more rows, and 2 more variables: just_date <date>,
    ## #   just_time <time>
…
